Terminais
[ a ]
[ b ]
Variaveis
[ S ]
[ A ]
Inicial
[ S ]
Regras
[ S ] > [ A ] [ A ] ;0.9
[ S ] > [ A ] [ S ] ;0.05
[ S ] > [ b ] ;0.05
[ A ] > [ S ] [ A ] ;0.6
[ A ] > [ A ] [ S ] ;0.35
[ A ] > [ a ] ;0.05
